Projekte/PWM-Verstärker (3J-HWE-Tillich)/Messungen/2014.03.26 - Nr43 - Leerlaufmessungen/2) Ch1 - Upwm(t), Ch2 - Ugt(t)/F0010CH1.CSV

Record Length,2.500000e+03,,  -0.000008000000,   1.20000,
Sample Interval,1.000000e-08,,  -0.000007990000,   0.80000,
Trigger Point,8.000000000000e+02,,  -0.000007980000,   1.20000,
,,,  -0.000007970000,   1.20000,
,,,  -0.000007960000,   0.80000,
,,,  -0.000007950000,   1.60000,
Source,CH1,,  -0.000007940000,   1.20000,
Vertical Units,V,,  -0.000007930000,   1.20000,
Vertical Scale,1.000000e+01,,  -0.000007920000,   0.80000,
Vertical Offset,1.120000e+01,,  -0.000007910000,   0.80000,
Horizontal Units,s,,  -0.000007900000,   0.80000,
Horizontal Scale,2.500000e-06,,  -0.000007890000,   1.20000,
Pt Fmt,Y,,  -0.000007880000,   1.20000,
Yzero,0.000000e+00,,  -0.000007870000,   0.40000,
Probe Atten,1.000000e+01,,  -0.000007860000,   1.20000,
Model Number,TDS1001B,,  -0.000007850000,   1.20000,
Serial Number,C054034,,  -0.000007840000,   0.40000,
Firmware Version,FV:v22.01,,  -0.000007830000,   1.20000,
,,,-00.000007820000,   1.20000,
,,,-00.000007810000,   1.20000,
,,,-00.000007800000,   0.80000,
,,,-00.000007790000,   0.80000,
,,,-00.000007780000,   0.80000,
,,,-00.000007770000,   0.80000,
,,,-00.000007760000,   1.20000,
,,,-00.000007750000,   0.80000,
,,,-00.000007740000,   1.20000,
,,,-00.000007730000,   0.80000,
,,,-00.000007720000,   0.80000,
,,,-00.000007710000,   1.20000,
,,,-00.000007700000,   1.20000,
,,,-00.000007690000,   0.80000,
,,,-00.000007680000,   0.80000,
,,,-00.000007670000,   0.80000,
,,,-00.000007660000,   0.80000,
,,,-00.000007650000,   0.80000,
,,,-00.000007640000,   0.80000,
,,,-00.000007630000,   0.80000,
,,,-00.000007620000,   0.80000,
,,,-00.000007610000,   1.20000,
,,,-00.000007600000,   1.60000,
,,,-00.000007590000,   0.80000,
,,,-00.000007580000,   1.20000,
,,,-00.000007570000,   1.20000,
,,,-00.000007560000,   0.80000,
,,,-00.000007550000,   1.20000,
,,,-00.000007540000,   1.20000,
,,,-00.000007530000,   1.20000,
,,,-00.000007520000,   1.60000,
,,,-00.000007510000,   0.80000,
,,,-00.000007500000,   0.80000,
,,,-00.000007490000,   1.20000,
,,,-00.000007480000,   0.40000,
,,,-00.000007470000,   0.80000,
,,,-00.000007460000,   1.20000,
,,,-00.000007450000,   0.80000,
,,,-00.000007440000,   0.40000,
,,,-00.000007430000,   0.40000,
,,,-00.000007420000,   1.20000,
,,,-00.000007410000,   1.20000,
,,,-00.000007400000,   0.80000,
,,,-00.000007390000,   1.20000,
,,,-00.000007380000,   1.20000,
,,,-00.000007370000,   1.60000,
,,,-00.000007360000,   1.20000,
,,,-00.000007350000,   0.80000,
,,,-00.000007340000,   0.80000,
,,,-00.000007330000,   0.40000,
,,,-00.000007320000,   0.80000,
,,,-00.000007310000,   0.40000,
,,,-00.000007300000,   1.20000,
,,,-00.000007290000,   0.80000,
,,,-00.000007280000,   0.80000,
,,,-00.000007270000,   0.80000,
,,,-00.000007260000,   0.80000,
,,,-00.000007250000,   1.20000,
,,,-00.000007240000,   0.80000,
,,,-00.000007230000,   0.80000,
,,,-00.000007220000,   0.80000,
,,,-00.000007210000,   0.80000,
,,,-00.000007200000,   0.80000,
,,,-00.000007190000,   0.40000,
,,,-00.000007180000,   0.80000,
,,,-00.000007170000,   1.20000,
,,,-00.000007160000,   0.80000,
,,,-00.000007150000,   0.80000,
,,,-00.000007140000,   0.80000,
,,,-00.000007130000,   0.80000,
,,,-00.000007120000,   1.20000,
,,,-00.000007110000,   0.80000,
,,,-00.000007100000,   0.80000,
,,,-00.000007090000,   1.20000,
,,,-00.000007080000,   0.40000,
,,,-00.000007070000,   0.80000,
,,,-00.000007060000,   0.80000,
,,,-00.000007050000,   1.20000,
,,,-00.000007040000,   1.20000,
,,,-00.000007030000,   0.80000,
,,,-00.000007020000,   0.80000,
,,,-00.000007010000,   1.20000,
,,,-00.000007000000,   0.40000,
,,,-00.000006990000,   0.80000,
,,,-00.000006980000,   1.20000,
,,,-00.000006970000,   0.40000,
,,,-00.000006960000,   1.20000,
,,,-00.000006950000,   0.80000,
,,,-00.000006940000,   1.20000,
,,,-00.000006930000,   1.20000,
,,,-00.000006920000,   0.80000,
,,,-00.000006910000,   0.80000,
,,,-00.000006900000,   1.20000,
,,,-00.000006890000,   1.20000,
,,,-00.000006880000,   0.80000,
,,,-00.000006870000,   0.40000,
,,,-00.000006860000,   1.60000,
,,,-00.000006850000,   0.80000,
,,,-00.000006840000,   1.60000,
,,,-00.000006830000,   1.20000,
,,,-00.000006820000,   1.20000,
,,,-00.000006810000,   0.80000,
,,,-00.000006800000,   1.20000,
,,,-00.000006790000,   0.80000,
,,,-00.000006780000,   0.80000,
,,,-00.000006770000,   0.80000,
,,,-00.000006760000,   0.80000,
,,,-00.000006750000,   0.80000,
,,,-00.000006740000,   1.20000,
,,,-00.000006730000,   0.80000,
,,,-00.000006720000,   1.20000,
,,,-00.000006710000,   0.80000,
,,,-00.000006700000,   0.40000,
,,,-00.000006690000,   0.80000,
,,,-00.000006680000,   0.80000,
,,,-00.000006670000,   0.80000,
,,,-00.000006660000,   0.80000,
,,,-00.000006650000,   0.80000,
,,,-00.000006640000,   1.20000,
,,,-00.000006630000,   0.40000,
,,,-00.000006620000,   0.40000,
,,,-00.000006610000,   1.20000,
,,,-00.000006600000,   0.80000,
,,,-00.000006590000,   0.80000,
,,,-00.000006580000,   0.40000,
,,,-00.000006570000,   0.40000,
,,,-00.000006560000,   1.20000,
,,,-00.000006550000,   0.80000,
,,,-00.000006540000,   1.60000,
,,,-00.000006530000,   1.20000,
,,,-00.000006520000,   0.80000,
,,,-00.000006510000,   0.80000,
,,,-00.000006500000,   1.20000,
,,,-00.000006490000,   0.80000,
,,,-00.000006480000,   0.80000,
,,,-00.000006470000,   0.80000,
,,,-00.000006460000,   1.20000,
,,,-00.000006450000,   0.80000,
,,,-00.000006440000,   0.40000,
,,,-00.000006430000,   1.20000,
,,,-00.000006420000,   0.80000,
,,,-00.000006410000,   0.80000,
,,,-00.000006400000,   1.20000,
,,,-00.000006390000,   0.40000,
,,,-00.000006380000,   0.80000,
,,,-00.000006370000,   0.80000,
,,,-00.000006360000,   0.80000,
,,,-00.000006350000,   0.80000,
,,,-00.000006340000,   0.40000,
,,,-00.000006330000,   0.80000,
,,,-00.000006320000,   0.80000,
,,,-00.000006310000,   1.20000,
,,,-00.000006300000,   0.80000,
,,,-00.000006290000,   0.80000,
,,,-00.000006280000,   1.20000,
,,,-00.000006270000,   1.20000,
,,,-00.000006260000,   0.80000,
,,,-00.000006250000,   1.20000,
,,,-00.000006240000,   1.20000,
,,,-00.000006230000,   0.80000,
,,,-00.000006220000,   0.80000,
,,,-00.000006210000,   0.80000,
,,,-00.000006200000,   0.80000,
,,,-00.000006190000,   1.20000,
,,,-00.000006180000,   1.60000,
,,,-00.000006170000,   1.20000,
,,,-00.000006160000,   1.20000,
,,,-00.000006150000,   1.20000,
,,,-00.000006140000,   0.80000,
,,,-00.000006130000,   1.20000,
,,,-00.000006120000,   0.80000,
,,,-00.000006110000,   0.80000,
,,,-00.000006100000,   0.40000,
,,,-00.000006090000,   0.40000,
,,,-00.000006080000,   0.80000,
,,,-00.000006070000,   1.20000,
,,,-00.000006060000,   1.20000,
,,,-00.000006050000,   1.60000,
,,,-00.000006040000,   0.80000,
,,,-00.000006030000,   0.80000,
,,,-00.000006020000,   1.20000,
,,,-00.000006010000,   1.20000,
,,,-00.000006000000,   0.80000,
,,,-00.000005990000,   0.80000,
,,,-00.000005980000,   0.80000,
,,,-00.000005970000,   1.20000,
,,,-00.000005960000,   0.80000,
,,,-00.000005950000,   0.80000,
,,,-00.000005940000,   0.40000,
,,,-00.000005930000,   0.80000,
,,,-00.000005920000,   0.80000,
,,,-00.000005910000,   0.80000,
,,,-00.000005900000,   0.80000,
,,,-00.000005890000,   0.80000,
,,,-00.000005880000,   0.80000,
,,,-00.000005870000,   2.00000,
,,,-00.000005860000,   0.40000,
,,,-00.000005850000,   1.20000,
,,,-00.000005840000,   0.40000,
,,,-00.000005830000,   1.20000,
,,,-00.000005820000,   1.20000,
,,,-00.000005810000,   0.40000,
,,,-00.000005800000,   0.80000,
,,,-00.000005790000,   0.80000,
,,,-00.000005780000,   1.20000,
,,,-00.000005770000,   0.80000,
,,,-00.000005760000,   1.20000,
,,,-00.000005750000,   0.80000,
,,,-00.000005740000,   0.80000,
,,,-00.000005730000,   0.80000,
,,,-00.000005720000,   1.20000,
,,,-00.000005710000,   0.80000,
,,,-00.000005700000,   0.80000,
,,,-00.000005690000,   0.80000,
,,,-00.000005680000,   0.80000,
,,,-00.000005670000,   1.20000,
,,,-00.000005660000,   0.80000,
,,,-00.000005650000,   0.40000,
,,,-00.000005640000,   0.80000,
,,,-00.000005630000,   0.80000,
,,,-00.000005620000,   1.60000,
,,,-00.000005610000,   0.40000,
,,,-00.000005600000,   1.20000,
,,,-00.000005590000,   0.40000,
,,,-00.000005580000,   0.80000,
,,,-00.000005570000,   1.20000,
,,,-00.000005560000,   0.80000,
,,,-00.000005550000,   1.20000,
,,,-00.000005540000,   1.60000,
,,,-00.000005530000,   0.80000,
,,,-00.000005520000,   1.20000,
,,,-00.000005510000,   1.20000,
,,,-00.000005500000,   0.00000,
,,,-00.000005490000,   0.80000,
,,,-00.000005480000,   0.40000,
,,,-00.000005470000,   0.40000,
,,,-00.000005460000,   0.80000,
,,,-00.000005450000,   0.40000,
,,,-00.000005440000,   1.20000,
,,,-00.000005430000,   0.80000,
,,,-00.000005420000,   0.80000,
,,,-00.000005410000,   0.80000,
,,,-00.000005400000,   0.40000,
,,,-00.000005390000,   1.20000,
,,,-00.000005380000,   1.20000,
,,,-00.000005370000,   0.40000,
,,,-00.000005360000,   0.40000,
,,,-00.000005350000,   0.80000,
,,,-00.000005340000,   0.40000,
,,,-00.000005330000,   0.40000,
,,,-00.000005320000,   1.20000,
,,,-00.000005310000,   0.80000,
,,,-00.000005300000,   0.80000,
,,,-00.000005290000,   1.20000,
,,,-00.000005280000,   0.80000,
,,,-00.000005270000,   1.20000,
,,,-00.000005260000,   0.40000,
,,,-00.000005250000,   1.60000,
,,,-00.000005240000,   0.80000,
,,,-00.000005230000,   0.80000,
,,,-00.000005220000,   0.80000,
,,,-00.000005210000,   1.20000,
,,,-00.000005200000,   1.20000,
,,,-00.000005190000,   0.80000,
,,,-00.000005180000,   0.40000,
,,,-00.000005170000,   0.80000,
,,,-00.000005160000,   1.20000,
,,,-00.000005150000,   0.40000,
,,,-00.000005140000,   1.20000,
,,,-00.000005130000,   0.80000,
,,,-00.000005120000,   0.80000,
,,,-00.000005110000,   0.80000,
,,,-00.000005100000,   0.40000,
,,,-00.000005090000,   0.80000,
,,,-00.000005080000,   1.20000,
,,,-00.000005070000,   1.60000,
,,,-00.000005060000,   1.60000,
,,,-00.000005050000,   1.20000,
,,,-00.000005040000,   0.40000,
,,,-00.000005030000,   1.20000,
,,,-00.000005020000,   0.80000,
,,,-00.000005010000,   0.80000,
,,,-00.000005000000,   1.20000,
,,,-00.000004990000,   0.40000,
,,,-00.000004980000,   1.20000,
,,,-00.000004970000,   0.80000,
,,,-00.000004960000,   1.20000,
,,,-00.000004950000,   0.80000,
,,,-00.000004940000,   0.80000,
,,,-00.000004930000,   0.80000,
,,,-00.000004920000,   0.40000,
,,,-00.000004910000,   0.80000,
,,,-00.000004900000,   0.40000,
,,,-00.000004890000,   0.80000,
,,,-00.000004880000,   1.20000,
,,,-00.000004870000,   0.40000,
,,,-00.000004860000,   0.80000,
,,,-00.000004850000,   0.80000,
,,,-00.000004840000,   0.80000,
,,,-00.000004830000,   0.80000,
,,,-00.000004820000,   0.80000,
,,,-00.000004810000,   0.80000,
,,,-00.000004800000,   0.80000,
,,,-00.000004790000,   1.20000,
,,,-00.000004780000,   0.80000,
,,,-00.000004770000,   1.20000,
,,,-00.000004760000,   0.80000,
,,,-00.000004750000,   0.80000,
,,,-00.000004740000,   0.80000,
,,,-00.000004730000,   0.80000,
,,,-00.000004720000,   0.80000,
,,,-00.000004710000,   0.40000,
,,,-00.000004700000,   0.80000,
,,,-00.000004690000,   0.80000,
,,,-00.000004680000,   1.20000,
,,,-00.000004670000,   1.20000,
,,,-00.000004660000,   0.80000,
,,,-00.000004650000,   0.80000,
,,,-00.000004640000,   0.40000,
,,,-00.000004630000,   2.00000,
,,,-00.000004620000,   0.80000,
,,,-00.000004610000,   0.80000,
,,,-00.000004600000,   0.80000,
,,,-00.000004590000,   0.80000,
,,,-00.000004580000,   1.20000,
,,,-00.000004570000,   0.80000,
,,,-00.000004560000,   1.20000,
,,,-00.000004550000,   1.60000,
,,,-00.000004540000,   0.40000,
,,,-00.000004530000,   0.80000,
,,,-00.000004520000,   1.20000,
,,,-00.000004510000,   0.80000,
,,,-00.000004500000,   0.80000,
,,,-00.000004490000,   0.80000,
,,,-00.000004480000,   1.20000,
,,,-00.000004470000,   0.40000,
,,,-00.000004460000,   1.20000,
,,,-00.000004450000,   0.80000,
,,,-00.000004440000,   1.20000,
,,,-00.000004430000,   0.80000,
,,,-00.000004420000,   1.20000,
,,,-00.000004410000,   0.40000,
,,,-00.000004400000,   0.80000,
,,,-00.000004390000,   1.20000,
,,,-00.000004380000,   0.80000,
,,,-00.000004370000,   1.20000,
,,,-00.000004360000,   0.40000,
,,,-00.000004350000,   0.80000,
,,,-00.000004340000,   0.40000,
,,,-00.000004330000,   1.20000,
,,,-00.000004320000,   1.20000,
,,,-00.000004310000,   0.80000,
,,,-00.000004300000,   0.80000,
,,,-00.000004290000,   1.20000,
,,,-00.000004280000,   0.40000,
,,,-00.000004270000,   0.40000,
,,,-00.000004260000,   0.80000,
,,,-00.000004250000,   0.80000,
,,,-00.000004240000,   1.20000,
,,,-00.000004230000,   0.40000,
,,,-00.000004220000,   0.80000,
,,,-00.000004210000,   1.20000,
,,,-00.000004200000,   1.60000,
,,,-00.000004190000,   0.40000,
,,,-00.000004180000,   1.20000,
,,,-00.000004170000,   1.20000,
,,,-00.000004160000,   0.40000,
,,,-00.000004150000,   0.80000,
,,,-00.000004140000,   1.20000,
,,,-00.000004130000,   0.80000,
,,,-00.000004120000,   0.80000,
,,,-00.000004110000,   0.40000,
,,,-00.000004100000,   0.80000,
,,,-00.000004090000,   1.20000,
,,,-00.000004080000,   0.80000,
,,,-00.000004070000,   1.20000,
,,,-00.000004060000,   0.80000,
,,,-00.000004050000,   0.40000,
,,,-00.000004040000,   0.80000,
,,,-00.000004030000,   0.80000,
,,,-00.000004020000,   0.80000,
,,,-00.000004010000,   0.80000,
,,,-00.000004000000,   0.40000,
,,,-00.000003990000,   0.80000,
,,,-00.000003980000,   1.20000,
,,,-00.000003970000,   1.60000,
,,,-00.000003960000,   0.80000,
,,,-00.000003950000,   1.20000,
,,,-00.000003940000,   1.20000,
,,,-00.000003930000,   0.80000,
,,,-00.000003920000,   1.20000,
,,,-00.000003910000,   0.80000,
,,,-00.000003900000,   0.80000,
,,,-00.000003890000,   1.20000,
,,,-00.000003880000,   0.80000,
,,,-00.000003870000,   1.20000,
,,,-00.000003860000,   0.40000,
,,,-00.000003850000,   0.80000,
,,,-00.000003840000,   0.80000,
,,,-00.000003830000,   0.80000,
,,,-00.000003820000,   0.80000,
,,,-00.000003810000,   0.80000,
,,,-00.000003800000,   0.80000,
,,,-00.000003790000,   1.20000,
,,,-00.000003780000,   0.80000,
,,,-00.000003770000,   0.80000,
,,,-00.000003760000,   0.80000,
,,,-00.000003750000,   1.20000,
,,,-00.000003740000,   1.20000,
,,,-00.000003730000,   0.80000,
,,,-00.000003720000,   1.20000,
,,,-00.000003710000,   1.20000,
,,,-00.000003700000,   0.80000,
,,,-00.000003690000,   0.80000,
,,,-00.000003680000,   0.80000,
,,,-00.000003670000,   0.80000,
,,,-00.000003660000,   0.40000,
,,,-00.000003650000,   1.20000,
,,,-00.000003640000,   1.20000,
,,,-00.000003630000,   0.80000,
,,,-00.000003620000,   1.20000,
,,,-00.000003610000,   0.80000,
,,,-00.000003600000,   1.20000,
,,,-00.000003590000,   1.20000,
,,,-00.000003580000,   0.80000,
,,,-00.000003570000,   0.40000,
,,,-00.000003560000,   1.60000,
,,,-00.000003550000,   0.80000,
,,,-00.000003540000,   1.20000,
,,,-00.000003530000,   1.20000,
,,,-00.000003520000,   0.40000,
,,,-00.000003510000,   0.80000,
,,,-00.000003500000,   0.80000,
,,,-00.000003490000,   0.80000,
,,,-00.000003480000,   0.40000,
,,,-00.000003470000,   0.80000,
,,,-00.000003460000,   0.80000,
,,,-00.000003450000,   1.20000,
,,,-00.000003440000,   0.80000,
,,,-00.000003430000,   0.40000,
,,,-00.000003420000,   0.80000,
,,,-00.000003410000,   1.20000,
,,,-00.000003400000,   0.40000,
,,,-00.000003390000,   1.20000,
,,,-00.000003380000,   0.80000,
,,,-00.000003370000,   0.40000,
,,,-00.000003360000,   0.80000,
,,,-00.000003350000,   0.80000,
,,,-00.000003340000,   0.80000,
,,,-00.000003330000,   1.20000,
,,,-00.000003320000,   0.40000,
,,,-00.000003310000,   1.20000,
,,,-00.000003300000,   1.20000,
,,,-00.000003290000,   0.80000,
,,,-00.000003280000,   0.80000,
,,,-00.000003270000,   0.80000,
,,,-00.000003260000,   0.80000,
,,,-00.000003250000,   1.20000,
,,,-00.000003240000,   1.20000,
,,,-00.000003230000,   0.80000,
,,,-00.000003220000,   0.80000,
,,,-00.000003210000,   1.60000,
,,,-00.000003200000,   1.20000,
,,,-00.000003190000,   0.40000,
,,,-00.000003180000,   1.20000,
,,,-00.000003170000,   0.40000,
,,,-00.000003160000,   1.20000,
,,,-00.000003150000,   0.80000,
,,,-00.000003140000,   0.80000,
,,,-00.000003130000,   1.20000,
,,,-00.000003120000,   0.40000,
,,,-00.000003110000,   0.40000,
,,,-00.000003100000,   1.20000,
,,,-00.000003090000,   1.20000,
,,,-00.000003080000,   1.20000,
,,,-00.000003070000,   0.80000,
,,,-00.000003060000,   0.40000,
,,,-00.000003050000,   0.80000,
,,,-00.000003040000,   0.40000,
,,,-00.000003030000,   0.80000,
,,,-00.000003020000,   1.20000,
,,,-00.000003010000,   0.40000,
,,,-00.000003000000,   1.20000,
,,,-00.000002990000,   0.80000,
,,,-00.000002980000,   0.80000,
,,,-00.000002970000,   0.80000,
,,,-00.000002960000,   0.80000,
,,,-00.000002950000,   1.20000,
,,,-00.000002940000,   1.20000,
,,,-00.000002930000,   0.80000,
,,,-00.000002920000,   0.80000,
,,,-00.000002910000,   0.80000,
,,,-00.000002900000,   1.60000,
,,,-00.000002890000,   0.80000,
,,,-00.000002880000,   1.60000,
,,,-00.000002870000,   1.20000,
,,,-00.000002860000,   0.80000,
,,,-00.000002850000,   1.20000,
,,,-00.000002840000,   0.80000,
,,,-00.000002830000,   0.80000,
,,,-00.000002820000,   0.80000,
,,,-00.000002810000,   0.80000,
,,,-00.000002800000,   0.80000,
,,,-00.000002790000,   1.20000,
,,,-00.000002780000,   1.20000,
,,,-00.000002770000,   0.40000,
,,,-00.000002760000,   0.80000,
,,,-00.000002750000,   1.20000,
,,,-00.000002740000,   0.40000,
,,,-00.000002730000,   0.40000,
,,,-00.000002720000,   0.80000,
,,,-00.000002710000,   0.40000,
,,,-00.000002700000,   1.60000,
,,,-00.000002690000,   0.40000,
,,,-00.000002680000,   0.80000,
,,,-00.000002670000,   0.40000,
,,,-00.000002660000,   0.80000,
,,,-00.000002650000,   1.20000,
,,,-00.000002640000,   0.80000,
,,,-00.000002630000,   0.80000,
,,,-00.000002620000,   0.80000,
,,,-00.000002610000,   0.80000,
,,,-00.000002600000,   0.80000,
,,,-00.000002590000,   1.20000,
,,,-00.000002580000,   0.80000,
,,,-00.000002570000,   1.60000,
,,,-00.000002560000,   0.80000,
,,,-00.000002550000,   1.20000,
,,,-00.000002540000,   0.80000,
,,,-00.000002530000,   0.40000,
,,,-00.000002520000,   0.80000,
,,,-00.000002510000,   0.80000,
,,,-00.000002500000,   0.40000,
,,,-00.000002490000,   0.40000,
,,,-00.000002480000,   1.20000,
,,,-00.000002470000,   0.80000,
,,,-00.000002460000,   0.40000,
,,,-00.000002450000,   0.40000,
,,,-00.000002440000,   0.40000,
,,,-00.000002430000,   0.40000,
,,,-00.000002420000,   1.20000,
,,,-00.000002410000,   0.80000,
,,,-00.000002400000,   0.80000,
,,,-00.000002390000,   0.80000,
,,,-00.000002380000,   0.80000,
,,,-00.000002370000,   1.20000,
,,,-00.000002360000,   0.80000,
,,,-00.000002350000,   1.20000,
,,,-00.000002340000,   1.20000,
,,,-00.000002330000,   0.80000,
,,,-00.000002320000,   1.20000,
,,,-00.000002310000,   1.20000,
,,,-00.000002300000,   0.80000,
,,,-00.000002290000,   0.80000,
,,,-00.000002280000,   1.20000,
,,,-00.000002270000,   0.40000,
,,,-00.000002260000,   0.80000,
,,,-00.000002250000,   1.20000,
,,,-00.000002240000,   1.20000,
,,,-00.000002230000,   1.20000,
,,,-00.000002220000,   1.60000,
,,,-00.000002210000,   0.80000,
,,,-00.000002200000,   1.20000,
,,,-00.000002190000,   1.20000,
,,,-00.000002180000,   0.40000,
,,,-00.000002170000,   0.80000,
,,,-00.000002160000,   0.80000,
,,,-00.000002150000,   0.40000,
,,,-00.000002140000,   1.20000,
,,,-00.000002130000,   0.80000,
,,,-00.000002120000,   0.80000,
,,,-00.000002110000,   1.20000,
,,,-00.000002100000,   1.20000,
,,,-00.000002090000,   1.20000,
,,,-00.000002080000,   0.80000,
,,,-00.000002070000,   0.40000,
,,,-00.000002060000,   0.80000,
,,,-00.000002050000,   0.80000,
,,,-00.000002040000,   1.20000,
,,,-00.000002030000,   0.80000,
,,,-00.000002020000,   0.80000,
,,,-00.000002010000,   0.80000,
,,,-00.000002000000,   0.80000,
,,,-00.000001990000,   0.80000,
,,,-00.000001980000,   0.80000,
,,,-00.000001970000,   1.60000,
,,,-00.000001960000,   2.40000,
,,,-00.000001950000,   3.20000,
,,,-00.000001940000,   4.00000,
,,,-00.000001930000,   4.40000,
,,,-00.000001920000,   5.20000,
,,,-00.000001910000,   6.40000,
,,,-00.000001900000,   6.80000,
,,,-00.000001890000,   8.00000,
,,,-00.000001880000,   8.40000,
,,,-00.000001870000,   9.60000,
