Projekte/PWM-Verstärker (3J-HWE-Tillich)/Messungen/2014.03.18 - Nr43 - Dreiecksgenerator only/1) U_Dreieck (t)/F0000CH1.CSV

Record Length,2.500000e+03,,  -0.000022200000,   1.84000,
Sample Interval,2.000000e-08,,  -0.000022180000,   1.76000,
Trigger Point,1.110000000000e+03,,  -0.000022160000,   1.92000,
,,,  -0.000022140000,   1.84000,
,,,  -0.000022120000,   1.76000,
,,,  -0.000022100000,   1.76000,
Source,CH1,,  -0.000022080000,   1.76000,
Vertical Units,V,,  -0.000022060000,   1.68000,
Vertical Scale,2.000000e+00,,  -0.000022040000,   1.76000,
Vertical Offset,0.000000e+00,,  -0.000022020000,   1.68000,
Horizontal Units,s,,  -0.000022000000,   1.68000,
Horizontal Scale,5.000000e-06,,  -0.000021980000,   1.68000,
Pt Fmt,Y,,  -0.000021960000,   1.68000,
Yzero,0.000000e+00,,  -0.000021940000,   1.60000,
Probe Atten,1.000000e+01,,  -0.000021920000,   1.60000,
Model Number,TDS1001B,,  -0.000021900000,   1.60000,
Serial Number,C054034,,  -0.000021880000,   1.60000,
Firmware Version,FV:v22.01,,  -0.000021860000,   1.68000,
,,,-00.000021840000,   1.60000,
,,,-00.000021820000,   1.52000,
,,,-00.000021800000,   1.44000,
,,,-00.000021780000,   1.60000,
,,,-00.000021760000,   1.60000,
,,,-00.000021740000,   1.44000,
,,,-00.000021720000,   1.44000,
,,,-00.000021700000,   1.36000,
,,,-00.000021680000,   1.36000,
,,,-00.000021660000,   1.36000,
,,,-00.000021640000,   1.36000,
,,,-00.000021620000,   1.36000,
,,,-00.000021600000,   1.28000,
,,,-00.000021580000,   1.44000,
,,,-00.000021560000,   1.36000,
,,,-00.000021540000,   1.28000,
,,,-00.000021520000,   1.28000,
,,,-00.000021500000,   1.28000,
,,,-00.000021480000,   1.20000,
,,,-00.000021460000,   1.20000,
,,,-00.000021440000,   1.28000,
,,,-00.000021420000,   1.20000,
,,,-00.000021400000,   1.12000,
,,,-00.000021380000,   1.12000,
,,,-00.000021360000,   1.04000,
,,,-00.000021340000,   1.12000,
,,,-00.000021320000,   1.12000,
,,,-00.000021300000,   1.04000,
,,,-00.000021280000,   1.12000,
,,,-00.000021260000,   1.04000,
,,,-00.000021240000,   1.04000,
,,,-00.000021220000,   1.04000,
,,,-00.000021200000,   0.96000,
,,,-00.000021180000,   0.96000,
,,,-00.000021160000,   0.96000,
,,,-00.000021140000,   0.96000,
,,,-00.000021120000,   0.88000,
,,,-00.000021100000,   0.96000,
,,,-00.000021080000,   0.88000,
,,,-00.000021060000,   0.80000,
,,,-00.000021040000,   0.88000,
,,,-00.000021020000,   0.80000,
,,,-00.000021000000,   0.88000,
,,,-00.000020980000,   0.80000,
,,,-00.000020960000,   0.88000,
,,,-00.000020940000,   0.80000,
,,,-00.000020920000,   0.80000,
,,,-00.000020900000,   0.72000,
,,,-00.000020880000,   0.72000,
,,,-00.000020860000,   0.64000,
,,,-00.000020840000,   0.64000,
,,,-00.000020820000,   0.64000,
,,,-00.000020800000,   0.64000,
,,,-00.000020780000,   0.72000,
,,,-00.000020760000,   0.72000,
,,,-00.000020740000,   0.64000,
,,,-00.000020720000,   0.56000,
,,,-00.000020700000,   0.56000,
,,,-00.000020680000,   0.56000,
,,,-00.000020660000,   0.56000,
,,,-00.000020640000,   0.48000,
,,,-00.000020620000,   0.56000,
,,,-00.000020600000,   0.40000,
,,,-00.000020580000,   0.40000,
,,,-00.000020560000,   0.40000,
,,,-00.000020540000,   0.40000,
,,,-00.000020520000,   0.32000,
,,,-00.000020500000,   0.40000,
,,,-00.000020480000,   0.40000,
,,,-00.000020460000,   0.32000,
,,,-00.000020440000,   0.32000,
,,,-00.000020420000,   0.32000,
,,,-00.000020400000,   0.32000,
,,,-00.000020380000,   0.32000,
,,,-00.000020360000,   0.32000,
,,,-00.000020340000,   0.32000,
,,,-00.000020320000,   0.24000,
,,,-00.000020300000,   0.24000,
,,,-00.000020280000,   0.16000,
,,,-00.000020260000,   0.24000,
,,,-00.000020240000,   0.16000,
,,,-00.000020220000,   0.08000,
,,,-00.000020200000,   0.16000,
,,,-00.000020180000,   0.08000,
,,,-00.000020160000,   0.16000,
,,,-00.000020140000,   0.00000,
,,,-00.000020120000,   0.00000,
,,,-00.000020100000,   0.00000,
,,,-00.000020080000,   0.00000,
,,,-00.000020060000,  -0.08000,
,,,-00.000020040000,   0.00000,
,,,-00.000020020000,  -0.08000,
,,,-00.000020000000,  -0.08000,
,,,-00.000019980000,  -0.08000,
,,,-00.000019960000,  -0.08000,
,,,-00.000019940000,  -0.16000,
,,,-00.000019920000,  -0.08000,
,,,-00.000019900000,  -0.24000,
,,,-00.000019880000,  -0.16000,
,,,-00.000019860000,  -0.24000,
,,,-00.000019840000,  -0.24000,
,,,-00.000019820000,  -0.24000,
,,,-00.000019800000,  -0.24000,
,,,-00.000019780000,  -0.24000,
,,,-00.000019760000,  -0.24000,
,,,-00.000019740000,  -0.24000,
,,,-00.000019720000,  -0.32000,
,,,-00.000019700000,  -0.32000,
,,,-00.000019680000,  -0.32000,
,,,-00.000019660000,  -0.32000,
,,,-00.000019640000,  -0.40000,
,,,-00.000019620000,  -0.40000,
,,,-00.000019600000,  -0.40000,
,,,-00.000019580000,  -0.40000,
,,,-00.000019560000,  -0.40000,
,,,-00.000019540000,  -0.48000,
,,,-00.000019520000,  -0.40000,
,,,-00.000019500000,  -0.56000,
,,,-00.000019480000,  -0.48000,
,,,-00.000019460000,  -0.56000,
,,,-00.000019440000,  -0.48000,
,,,-00.000019420000,  -0.48000,
,,,-00.000019400000,  -0.56000,
,,,-00.000019380000,  -0.56000,
,,,-00.000019360000,  -0.64000,
,,,-00.000019340000,  -0.56000,
,,,-00.000019320000,  -0.56000,
,,,-00.000019300000,  -0.64000,
,,,-00.000019280000,  -0.64000,
,,,-00.000019260000,  -0.80000,
,,,-00.000019240000,  -0.64000,
,,,-00.000019220000,  -0.64000,
,,,-00.000019200000,  -0.64000,
,,,-00.000019180000,  -0.80000,
,,,-00.000019160000,  -0.80000,
,,,-00.000019140000,  -0.72000,
,,,-00.000019120000,  -0.72000,
,,,-00.000019100000,  -0.72000,
,,,-00.000019080000,  -0.96000,
,,,-00.000019060000,  -0.96000,
,,,-00.000019040000,  -0.96000,
,,,-00.000019020000,  -0.96000,
,,,-00.000019000000,  -0.88000,
,,,-00.000018980000,  -0.96000,
,,,-00.000018960000,  -0.96000,
,,,-00.000018940000,  -0.96000,
,,,-00.000018920000,  -0.88000,
,,,-00.000018900000,  -0.96000,
,,,-00.000018880000,  -1.04000,
,,,-00.000018860000,  -1.12000,
,,,-00.000018840000,  -1.04000,
,,,-00.000018820000,  -1.04000,
,,,-00.000018800000,  -1.12000,
,,,-00.000018780000,  -1.12000,
,,,-00.000018760000,  -1.12000,
,,,-00.000018740000,  -1.12000,
,,,-00.000018720000,  -1.20000,
,,,-00.000018700000,  -1.20000,
,,,-00.000018680000,  -1.20000,
,,,-00.000018660000,  -1.20000,
,,,-00.000018640000,  -1.28000,
,,,-00.000018620000,  -1.20000,
,,,-00.000018600000,  -1.20000,
,,,-00.000018580000,  -1.36000,
,,,-00.000018560000,  -1.36000,
,,,-00.000018540000,  -1.36000,
,,,-00.000018520000,  -1.44000,
,,,-00.000018500000,  -1.28000,
,,,-00.000018480000,  -1.36000,
,,,-00.000018460000,  -1.36000,
,,,-00.000018440000,  -1.28000,
,,,-00.000018420000,  -1.44000,
,,,-00.000018400000,  -1.44000,
,,,-00.000018380000,  -1.52000,
,,,-00.000018360000,  -1.36000,
,,,-00.000018340000,  -1.44000,
,,,-00.000018320000,  -1.52000,
,,,-00.000018300000,  -1.60000,
,,,-00.000018280000,  -1.52000,
,,,-00.000018260000,  -1.60000,
,,,-00.000018240000,  -1.52000,
,,,-00.000018220000,  -1.52000,
,,,-00.000018200000,  -1.60000,
,,,-00.000018180000,  -1.68000,
,,,-00.000018160000,  -1.60000,
,,,-00.000018140000,  -1.68000,
,,,-00.000018120000,  -1.60000,
,,,-00.000018100000,  -1.60000,
,,,-00.000018080000,  -1.76000,
,,,-00.000018060000,  -1.68000,
,,,-00.000018040000,  -1.76000,
,,,-00.000018020000,  -1.68000,
,,,-00.000018000000,  -1.84000,
,,,-00.000017980000,  -1.84000,
,,,-00.000017960000,  -1.84000,
,,,-00.000017940000,  -1.76000,
,,,-00.000017920000,  -1.92000,
,,,-00.000017900000,  -1.84000,
,,,-00.000017880000,  -2.00000,
,,,-00.000017860000,  -1.92000,
,,,-00.000017840000,  -1.92000,
,,,-00.000017820000,  -1.92000,
,,,-00.000017800000,  -2.00000,
,,,-00.000017780000,  -2.00000,
,,,-00.000017760000,  -2.08000,
,,,-00.000017740000,  -2.00000,
,,,-00.000017720000,  -2.00000,
,,,-00.000017700000,  -2.00000,
,,,-00.000017680000,  -2.08000,
,,,-00.000017660000,  -2.00000,
,,,-00.000017640000,  -2.08000,
,,,-00.000017620000,  -2.16000,
,,,-00.000017600000,  -2.08000,
,,,-00.000017580000,  -2.16000,
,,,-00.000017560000,  -2.08000,
,,,-00.000017540000,  -2.24000,
,,,-00.000017520000,  -2.16000,
,,,-00.000017500000,  -2.16000,
,,,-00.000017480000,  -2.16000,
,,,-00.000017460000,  -2.24000,
,,,-00.000017440000,  -2.24000,
,,,-00.000017420000,  -2.32000,
,,,-00.000017400000,  -2.24000,
,,,-00.000017380000,  -2.40000,
,,,-00.000017360000,  -2.32000,
,,,-00.000017340000,  -2.32000,
,,,-00.000017320000,  -2.40000,
,,,-00.000017300000,  -2.48000,
,,,-00.000017280000,  -2.40000,
,,,-00.000017260000,  -2.24000,
,,,-00.000017240000,  -2.48000,
,,,-00.000017220000,  -2.40000,
,,,-00.000017200000,  -2.48000,
,,,-00.000017180000,  -2.48000,
,,,-00.000017160000,  -2.40000,
,,,-00.000017140000,  -2.48000,
,,,-00.000017120000,  -2.32000,
,,,-00.000017100000,  -2.56000,
,,,-00.000017080000,  -2.56000,
,,,-00.000017060000,  -2.56000,
,,,-00.000017040000,  -2.56000,
,,,-00.000017020000,  -2.48000,
,,,-00.000017000000,  -2.72000,
,,,-00.000016980000,  -2.72000,
,,,-00.000016960000,  -2.64000,
,,,-00.000016940000,  -2.72000,
,,,-00.000016920000,  -2.72000,
,,,-00.000016900000,  -2.64000,
,,,-00.000016880000,  -2.72000,
,,,-00.000016860000,  -2.72000,
,,,-00.000016840000,  -2.80000,
,,,-00.000016820000,  -2.72000,
,,,-00.000016800000,  -2.80000,
,,,-00.000016780000,  -2.80000,
,,,-00.000016760000,  -2.80000,
,,,-00.000016740000,  -2.80000,
,,,-00.000016720000,  -2.96000,
,,,-00.000016700000,  -2.88000,
,,,-00.000016680000,  -2.88000,
,,,-00.000016660000,  -2.96000,
,,,-00.000016640000,  -2.88000,
,,,-00.000016620000,  -2.64000,
,,,-00.000016600000,  -2.80000,
,,,-00.000016580000,  -2.80000,
,,,-00.000016560000,  -2.72000,
,,,-00.000016540000,  -2.80000,
,,,-00.000016520000,  -2.72000,
,,,-00.000016500000,  -2.72000,
,,,-00.000016480000,  -2.64000,
,,,-00.000016460000,  -2.56000,
,,,-00.000016440000,  -2.64000,
,,,-00.000016420000,  -2.64000,
,,,-00.000016400000,  -2.56000,
,,,-00.000016380000,  -2.56000,
,,,-00.000016360000,  -2.48000,
,,,-00.000016340000,  -2.56000,
,,,-00.000016320000,  -2.48000,
,,,-00.000016300000,  -2.40000,
,,,-00.000016280000,  -2.48000,
,,,-00.000016260000,  -2.48000,
,,,-00.000016240000,  -2.48000,
,,,-00.000016220000,  -2.40000,
,,,-00.000016200000,  -2.40000,
,,,-00.000016180000,  -2.32000,
,,,-00.000016160000,  -2.32000,
,,,-00.000016140000,  -2.24000,
,,,-00.000016120000,  -2.24000,
,,,-00.000016100000,  -2.40000,
,,,-00.000016080000,  -2.16000,
,,,-00.000016060000,  -2.32000,
,,,-00.000016040000,  -2.32000,
,,,-00.000016020000,  -2.24000,
,,,-00.000016000000,  -2.24000,
,,,-00.000015980000,  -2.16000,
,,,-00.000015960000,  -2.08000,
,,,-00.000015940000,  -2.16000,
,,,-00.000015920000,  -2.16000,
,,,-00.000015900000,  -2.08000,
,,,-00.000015880000,  -2.08000,
,,,-00.000015860000,  -2.08000,
,,,-00.000015840000,  -2.08000,
,,,-00.000015820000,  -2.08000,
,,,-00.000015800000,  -2.00000,
,,,-00.000015780000,  -2.08000,
,,,-00.000015760000,  -1.92000,
,,,-00.000015740000,  -1.92000,
,,,-00.000015720000,  -1.84000,
,,,-00.000015700000,  -1.92000,
,,,-00.000015680000,  -1.84000,
,,,-00.000015660000,  -2.00000,
,,,-00.000015640000,  -1.76000,
,,,-00.000015620000,  -1.76000,
,,,-00.000015600000,  -1.84000,
,,,-00.000015580000,  -1.84000,
,,,-00.000015560000,  -2.00000,
,,,-00.000015540000,  -1.76000,
,,,-00.000015520000,  -1.76000,
,,,-00.000015500000,  -1.84000,
,,,-00.000015480000,  -1.76000,
,,,-00.000015460000,  -1.76000,
,,,-00.000015440000,  -1.68000,
,,,-00.000015420000,  -1.68000,
,,,-00.000015400000,  -1.68000,
,,,-00.000015380000,  -1.60000,
,,,-00.000015360000,  -1.76000,
,,,-00.000015340000,  -1.68000,
,,,-00.000015320000,  -1.60000,
,,,-00.000015300000,  -1.52000,
,,,-00.000015280000,  -1.52000,
,,,-00.000015260000,  -1.68000,
,,,-00.000015240000,  -1.60000,
,,,-00.000015220000,  -1.52000,
,,,-00.000015200000,  -1.44000,
,,,-00.000015180000,  -1.52000,
,,,-00.000015160000,  -1.44000,
,,,-00.000015140000,  -1.36000,
,,,-00.000015120000,  -1.44000,
,,,-00.000015100000,  -1.28000,
,,,-00.000015080000,  -1.36000,
,,,-00.000015060000,  -1.36000,
,,,-00.000015040000,  -1.28000,
,,,-00.000015020000,  -1.44000,
,,,-00.000015000000,  -1.36000,
,,,-00.000014980000,  -1.36000,
,,,-00.000014960000,  -1.20000,
,,,-00.000014940000,  -1.20000,
,,,-00.000014920000,  -1.28000,
,,,-00.000014900000,  -1.28000,
,,,-00.000014880000,  -1.12000,
,,,-00.000014860000,  -1.20000,
,,,-00.000014840000,  -1.20000,
,,,-00.000014820000,  -1.20000,
,,,-00.000014800000,  -1.20000,
,,,-00.000014780000,  -1.04000,
,,,-00.000014760000,  -1.12000,
,,,-00.000014740000,  -1.04000,
,,,-00.000014720000,  -1.04000,
,,,-00.000014700000,  -1.04000,
,,,-00.000014680000,  -1.04000,
,,,-00.000014660000,  -0.96000,
,,,-00.000014640000,  -1.04000,
,,,-00.000014620000,  -1.04000,
,,,-00.000014600000,  -0.96000,
,,,-00.000014580000,  -0.96000,
,,,-00.000014560000,  -0.96000,
,,,-00.000014540000,  -0.88000,
,,,-00.000014520000,  -0.88000,
,,,-00.000014500000,  -0.80000,
,,,-00.000014480000,  -0.80000,
,,,-00.000014460000,  -0.88000,
,,,-00.000014440000,  -0.80000,
,,,-00.000014420000,  -0.88000,
,,,-00.000014400000,  -0.72000,
,,,-00.000014380000,  -0.72000,
,,,-00.000014360000,  -0.80000,
,,,-00.000014340000,  -0.72000,
,,,-00.000014320000,  -0.56000,
,,,-00.000014300000,  -0.72000,
,,,-00.000014280000,  -0.64000,
,,,-00.000014260000,  -0.64000,
,,,-00.000014240000,  -0.72000,
,,,-00.000014220000,  -0.64000,
,,,-00.000014200000,  -0.56000,
,,,-00.000014180000,  -0.64000,
,,,-00.000014160000,  -0.56000,
,,,-00.000014140000,  -0.48000,
,,,-00.000014120000,  -0.56000,
,,,-00.000014100000,  -0.48000,
,,,-00.000014080000,  -0.56000,
,,,-00.000014060000,  -0.48000,
,,,-00.000014040000,  -0.56000,
,,,-00.000014020000,  -0.56000,
,,,-00.000014000000,  -0.40000,
,,,-00.000013980000,  -0.40000,
,,,-00.000013960000,  -0.48000,
,,,-00.000013940000,  -0.40000,
,,,-00.000013920000,  -0.40000,
,,,-00.000013900000,  -0.32000,
,,,-00.000013880000,  -0.40000,
,,,-00.000013860000,  -0.32000,
,,,-00.000013840000,  -0.24000,
,,,-00.000013820000,  -0.24000,
,,,-00.000013800000,  -0.24000,
,,,-00.000013780000,  -0.24000,
,,,-00.000013760000,  -0.24000,
,,,-00.000013740000,  -0.24000,
,,,-00.000013720000,  -0.16000,
,,,-00.000013700000,  -0.16000,
,,,-00.000013680000,  -0.16000,
,,,-00.000013660000,  -0.16000,
,,,-00.000013640000,  -0.08000,
,,,-00.000013620000,  -0.16000,
,,,-00.000013600000,   0.00000,
,,,-00.000013580000,  -0.16000,
,,,-00.000013560000,   0.00000,
,,,-00.000013540000,   0.00000,
,,,-00.000013520000,   0.08000,
,,,-00.000013500000,   0.00000,
,,,-00.000013480000,   0.00000,
,,,-00.000013460000,   0.08000,
,,,-00.000013440000,   0.08000,
,,,-00.000013420000,   0.08000,
,,,-00.000013400000,   0.08000,
,,,-00.000013380000,   0.08000,
,,,-00.000013360000,   0.16000,
,,,-00.000013340000,   0.24000,
,,,-00.000013320000,   0.08000,
,,,-00.000013300000,   0.24000,
,,,-00.000013280000,   0.24000,
,,,-00.000013260000,   0.16000,
,,,-00.000013240000,   0.24000,
,,,-00.000013220000,   0.24000,
,,,-00.000013200000,   0.32000,
,,,-00.000013180000,   0.24000,
,,,-00.000013160000,   0.40000,
,,,-00.000013140000,   0.40000,
,,,-00.000013120000,   0.32000,
,,,-00.000013100000,   0.32000,
,,,-00.000013080000,   0.40000,
,,,-00.000013060000,   0.40000,
,,,-00.000013040000,   0.40000,
,,,-00.000013020000,   0.40000,
,,,-00.000013000000,   0.48000,
,,,-00.000012980000,   0.56000,
,,,-00.000012960000,   0.48000,
,,,-00.000012940000,   0.48000,
,,,-00.000012920000,   0.56000,
,,,-00.000012900000,   0.56000,
,,,-00.000012880000,   0.56000,
,,,-00.000012860000,   0.56000,
,,,-00.000012840000,   0.64000,
,,,-00.000012820000,   0.56000,
,,,-00.000012800000,   0.72000,
,,,-00.000012780000,   0.64000,
,,,-00.000012760000,   0.72000,
,,,-00.000012740000,   0.72000,
,,,-00.000012720000,   0.72000,
,,,-00.000012700000,   0.80000,
,,,-00.000012680000,   0.72000,
,,,-00.000012660000,   0.72000,
,,,-00.000012640000,   0.80000,
,,,-00.000012620000,   0.80000,
,,,-00.000012600000,   0.72000,
,,,-00.000012580000,   0.88000,
,,,-00.000012560000,   0.88000,
,,,-00.000012540000,   0.72000,
,,,-00.000012520000,   0.96000,
,,,-00.000012500000,   0.96000,
,,,-00.000012480000,   0.80000,
,,,-00.000012460000,   0.88000,
,,,-00.000012440000,   0.88000,
,,,-00.000012420000,   1.04000,
,,,-00.000012400000,   0.96000,
,,,-00.000012380000,   0.88000,
,,,-00.000012360000,   0.96000,
,,,-00.000012340000,   1.12000,
,,,-00.000012320000,   1.04000,
,,,-00.000012300000,   0.96000,
,,,-00.000012280000,   1.04000,
,,,-00.000012260000,   1.12000,
,,,-00.000012240000,   1.12000,
,,,-00.000012220000,   1.20000,
,,,-00.000012200000,   1.12000,
,,,-00.000012180000,   1.12000,
,,,-00.000012160000,   1.12000,
,,,-00.000012140000,   1.20000,
,,,-00.000012120000,   1.28000,
,,,-00.000012100000,   1.12000,
,,,-00.000012080000,   1.20000,
,,,-00.000012060000,   1.20000,
,,,-00.000012040000,   1.36000,
,,,-00.000012020000,   1.36000,
,,,-00.000012000000,   1.36000,
,,,-00.000011980000,   1.28000,
,,,-00.000011960000,   1.36000,
,,,-00.000011940000,   1.36000,
,,,-00.000011920000,   1.36000,
,,,-00.000011900000,   1.36000,
,,,-00.000011880000,   1.44000,
,,,-00.000011860000,   1.44000,
,,,-00.000011840000,   1.52000,
,,,-00.000011820000,   1.44000,
,,,-00.000011800000,   1.52000,
,,,-00.000011780000,   1.44000,
,,,-00.000011760000,   1.52000,
,,,-00.000011740000,   1.52000,
,,,-00.000011720000,   1.52000,
,,,-00.000011700000,   1.44000,
,,,-00.000011680000,   1.68000,
,,,-00.000011660000,   1.68000,
,,,-00.000011640000,   1.68000,
,,,-00.000011620000,   1.76000,
,,,-00.000011600000,   1.60000,
,,,-00.000011580000,   1.60000,
,,,-00.000011560000,   1.68000,
,,,-00.000011540000,   1.68000,
,,,-00.000011520000,   1.68000,
,,,-00.000011500000,   1.76000,
,,,-00.000011480000,   1.76000,
,,,-00.000011460000,   1.84000,
,,,-00.000011440000,   1.76000,
,,,-00.000011420000,   1.92000,
,,,-00.000011400000,   1.92000,
,,,-00.000011380000,   1.92000,
,,,-00.000011360000,   1.84000,
,,,-00.000011340000,   1.92000,
,,,-00.000011320000,   2.08000,
,,,-00.000011300000,   1.84000,
,,,-00.000011280000,   1.92000,
,,,-00.000011260000,   2.00000,
,,,-00.000011240000,   1.92000,
,,,-00.000011220000,   2.00000,
,,,-00.000011200000,   2.16000,
,,,-00.000011180000,   2.08000,
,,,-00.000011160000,   1.92000,
,,,-00.000011140000,   2.00000,
,,,-00.000011120000,   2.08000,
,,,-00.000011100000,   2.08000,
,,,-00.000011080000,   2.08000,
,,,-00.000011060000,   2.08000,
,,,-00.000011040000,   2.08000,
,,,-00.000011020000,   2.16000,
,,,-00.000011000000,   2.24000,
,,,-00.000010980000,   2.16000,
,,,-00.000010960000,   2.24000,
,,,-00.000010940000,   2.16000,
,,,-00.000010920000,   2.16000,
,,,-00.000010900000,   2.24000,
,,,-00.000010880000,   2.24000,
,,,-00.000010860000,   2.24000,
,,,-00.000010840000,   2.32000,
,,,-00.000010820000,   2.40000,
,,,-00.000010800000,   2.32000,
,,,-00.000010780000,   2.32000,
,,,-00.000010760000,   2.32000,
,,,-00.000010740000,   2.40000,
,,,-00.000010720000,   2.48000,
,,,-00.000010700000,   2.32000,
,,,-00.000010680000,   2.40000,
,,,-00.000010660000,   2.48000,
,,,-00.000010640000,   2.48000,
,,,-00.000010620000,   2.48000,
,,,-00.000010600000,   2.48000,
,,,-00.000010580000,   2.56000,
,,,-00.000010560000,   2.56000,
,,,-00.000010540000,   2.56000,
,,,-00.000010520000,   2.56000,
,,,-00.000010500000,   2.56000,
,,,-00.000010480000,   2.56000,
,,,-00.000010460000,   2.64000,
,,,-00.000010440000,   2.72000,
,,,-00.000010420000,   2.72000,
,,,-00.000010400000,   2.64000,
,,,-00.000010380000,   2.72000,
,,,-00.000010360000,   2.88000,
,,,-00.000010340000,   2.80000,
,,,-00.000010320000,   2.64000,
,,,-00.000010300000,   2.80000,
,,,-00.000010280000,   2.80000,
,,,-00.000010260000,   2.88000,
,,,-00.000010240000,   2.80000,
,,,-00.000010220000,   2.72000,
,,,-00.000010200000,   2.80000,
,,,-00.000010180000,   2.88000,
,,,-00.000010160000,   2.88000,
,,,-00.000010140000,   2.72000,
,,,-00.000010120000,   2.80000,
,,,-00.000010100000,   2.72000,
,,,-00.000010080000,   2.56000,
,,,-00.000010060000,   2.56000,
,,,-00.000010040000,   2.64000,
,,,-00.000010020000,   2.72000,
,,,-00.000010000000,   2.64000,
,,,-00.000009980000,   2.56000,
,,,-00.000009960000,   2.56000,
,,,-00.000009940000,   2.48000,
