Unterrichtsfächer nach Jahrgängen/3. Jahrgang/PBE/BOEH/ALL0001/F0001CH1.CSV

Record Length,2.500000e+03,,  -0.000806000000,  -6.80000,
Sample Interval,1.000000e-06,,  -0.000805000000,  -6.80000,
Trigger Point,8.060000000000e+02,,  -0.000804000000,  -6.80000,
,,,  -0.000803000000,  -6.80000,
,,,  -0.000802000000,  -6.80000,
,,,  -0.000801000000,  -6.80000,
Source,CH1,,  -0.000800000000,  -6.80000,
Vertical Units,V,,  -0.000799000000,  -6.60000,
Vertical Scale,5.000000e+00,,  -0.000798000000,  -6.60000,
Vertical Offset,6.000000e-01,,  -0.000797000000,  -6.80000,
Horizontal Units,s,,  -0.000796000000,  -6.60000,
Horizontal Scale,2.500000e-04,,  -0.000795000000,  -6.60000,
Pt Fmt,Y,,  -0.000794000000,  -6.60000,
Yzero,0.000000e+00,,  -0.000793000000,  -6.60000,
Probe Atten,1.000000e+01,,  -0.000792000000,  -6.60000,
Model Number,TDS2001C,,  -0.000791000000,  -6.60000,
Serial Number,C011360,,  -0.000790000000,  -6.60000,
Firmware Version,FV:v24.09,,  -0.000789000000,  -6.40000,
,,,-00.000788000000,  -6.40000,
,,,-00.000787000000,  -6.40000,
,,,-00.000786000000,  -6.60000,
,,,-00.000785000000,  -6.40000,
,,,-00.000784000000,  -6.40000,
,,,-00.000783000000,  -6.40000,
,,,-00.000782000000,  -6.20000,
,,,-00.000781000000,  -6.40000,
,,,-00.000780000000,  -6.20000,
,,,-00.000779000000,  -6.20000,
,,,-00.000778000000,  -6.20000,
,,,-00.000777000000,  -6.20000,
,,,-00.000776000000,  -6.40000,
,,,-00.000775000000,  -6.20000,
,,,-00.000774000000,  -6.20000,
,,,-00.000773000000,  -6.20000,
,,,-00.000772000000,  -6.20000,
,,,-00.000771000000,  -6.00000,
,,,-00.000770000000,  -6.20000,
,,,-00.000769000000,  -6.80000,
,,,-00.000768000000,  -7.00000,
,,,-00.000767000000,  -7.00000,
,,,-00.000766000000,  -7.00000,
,,,-00.000765000000,  -7.00000,
,,,-00.000764000000,  -7.00000,
,,,-00.000763000000,  -7.00000,
,,,-00.000762000000,  -7.00000,
,,,-00.000761000000,  -7.00000,
,,,-00.000760000000,  -7.00000,
,,,-00.000759000000,  -6.80000,
,,,-00.000758000000,  -7.00000,
,,,-00.000757000000,  -6.80000,
,,,-00.000756000000,  -6.80000,
,,,-00.000755000000,  -6.80000,
,,,-00.000754000000,  -6.80000,
,,,-00.000753000000,  -6.60000,
,,,-00.000752000000,  -6.80000,
,,,-00.000751000000,  -6.80000,
,,,-00.000750000000,  -6.60000,
,,,-00.000749000000,  -6.80000,
,,,-00.000748000000,  -6.60000,
,,,-00.000747000000,  -6.60000,
,,,-00.000746000000,  -6.60000,
,,,-00.000745000000,  -6.60000,
,,,-00.000744000000,  -6.60000,
,,,-00.000743000000,  -6.60000,
,,,-00.000742000000,  -6.40000,
,,,-00.000741000000,  -6.60000,
,,,-00.000740000000,  -6.40000,
,,,-00.000739000000,  -6.60000,
,,,-00.000738000000,  -6.40000,
,,,-00.000737000000,  -6.40000,
,,,-00.000736000000,  -6.40000,
,,,-00.000735000000,  -6.40000,
,,,-00.000734000000,  -6.60000,
,,,-00.000733000000,  -6.40000,
,,,-00.000732000000,  -6.40000,
,,,-00.000731000000,  -6.40000,
,,,-00.000730000000,  -6.40000,
,,,-00.000729000000,  -6.40000,
,,,-00.000728000000,  -6.40000,
,,,-00.000727000000,  -6.20000,
,,,-00.000726000000,  -6.40000,
,,,-00.000725000000,  -6.20000,
,,,-00.000724000000,  -6.00000,
,,,-00.000723000000,  -6.20000,
,,,-00.000722000000,  -6.00000,
,,,-00.000721000000,  -6.20000,
,,,-00.000720000000,  -6.20000,
,,,-00.000719000000,  -7.00000,
,,,-00.000718000000,  -7.20000,
,,,-00.000717000000,  -7.00000,
,,,-00.000716000000,  -7.00000,
,,,-00.000715000000,  -7.00000,
,,,-00.000714000000,  -7.20000,
,,,-00.000713000000,  -7.00000,
,,,-00.000712000000,  -7.00000,
,,,-00.000711000000,  -7.00000,
,,,-00.000710000000,  -7.00000,
,,,-00.000709000000,  -7.00000,
,,,-00.000708000000,  -7.00000,
,,,-00.000707000000,  -7.00000,
,,,-00.000706000000,  -6.80000,
,,,-00.000705000000,  -6.80000,
,,,-00.000704000000,  -6.60000,
,,,-00.000703000000,  -6.80000,
,,,-00.000702000000,  -6.60000,
,,,-00.000701000000,  -6.80000,
,,,-00.000700000000,  -6.80000,
,,,-00.000699000000,  -6.60000,
,,,-00.000698000000,  -6.80000,
,,,-00.000697000000,  -6.60000,
,,,-00.000696000000,  -6.60000,
,,,-00.000695000000,  -6.60000,
,,,-00.000694000000,  -6.60000,
,,,-00.000693000000,  -6.60000,
,,,-00.000692000000,  -6.60000,
,,,-00.000691000000,  -6.60000,
,,,-00.000690000000,  -6.40000,
,,,-00.000689000000,  -6.40000,
,,,-00.000688000000,  -6.40000,
,,,-00.000687000000,  -6.40000,
,,,-00.000686000000,  -6.60000,
,,,-00.000685000000,  -6.60000,
,,,-00.000684000000,  -6.40000,
,,,-00.000683000000,  -6.60000,
,,,-00.000682000000,  -6.20000,
,,,-00.000681000000,  -6.40000,
,,,-00.000680000000,  -6.40000,
,,,-00.000679000000,  -6.40000,
,,,-00.000678000000,  -6.40000,
,,,-00.000677000000,  -6.40000,
,,,-00.000676000000,  -6.20000,
,,,-00.000675000000,  -6.20000,
,,,-00.000674000000,  -6.20000,
,,,-00.000673000000,  -6.20000,
,,,-00.000672000000,  -6.00000,
,,,-00.000671000000,  -6.00000,
,,,-00.000670000000,  -6.20000,
,,,-00.000669000000,  -6.00000,
,,,-00.000668000000,  -7.20000,
,,,-00.000667000000,  -7.20000,
,,,-00.000666000000,  -7.20000,
,,,-00.000665000000,  -7.00000,
,,,-00.000664000000,  -7.00000,
,,,-00.000663000000,  -7.20000,
,,,-00.000662000000,  -7.00000,
,,,-00.000661000000,  -7.00000,
,,,-00.000660000000,  -7.00000,
,,,-00.000659000000,  -7.00000,
,,,-00.000658000000,  -6.80000,
,,,-00.000657000000,  -7.00000,
,,,-00.000656000000,  -7.00000,
,,,-00.000655000000,  -6.80000,
,,,-00.000654000000,  -6.80000,
,,,-00.000653000000,  -6.80000,
,,,-00.000652000000,  -7.00000,
,,,-00.000651000000,  -6.80000,
,,,-00.000650000000,  -6.80000,
,,,-00.000649000000,  -6.80000,
,,,-00.000648000000,  -6.60000,
,,,-00.000647000000,  -6.80000,
,,,-00.000646000000,  -6.60000,
,,,-00.000645000000,  -6.60000,
,,,-00.000644000000,  -6.80000,
,,,-00.000643000000,  -6.60000,
,,,-00.000642000000,  -6.60000,
,,,-00.000641000000,  -6.60000,
,,,-00.000640000000,  -6.60000,
,,,-00.000639000000,  -6.60000,
,,,-00.000638000000,  -6.60000,
,,,-00.000637000000,  -6.60000,
,,,-00.000636000000,  -6.60000,
,,,-00.000635000000,  -6.40000,
,,,-00.000634000000,  -6.40000,
,,,-00.000633000000,  -6.60000,
,,,-00.000632000000,  -6.40000,
,,,-00.000631000000,  -6.60000,
,,,-00.000630000000,  -6.40000,
,,,-00.000629000000,  -6.40000,
,,,-00.000628000000,  -6.40000,
,,,-00.000627000000,  -6.40000,
,,,-00.000626000000,  -6.20000,
,,,-00.000625000000,  -6.40000,
,,,-00.000624000000,  -6.20000,
,,,-00.000623000000,  -6.20000,
,,,-00.000622000000,  -6.40000,
,,,-00.000621000000,  -6.40000,
,,,-00.000620000000,  -6.20000,
,,,-00.000619000000,  -6.00000,
,,,-00.000618000000,  -6.20000,
,,,-00.000617000000,  -6.00000,
,,,-00.000616000000,  -7.20000,
,,,-00.000615000000,  -7.20000,
,,,-00.000614000000,  -7.20000,
,,,-00.000613000000,  -7.00000,
,,,-00.000612000000,  -7.20000,
,,,-00.000611000000,  -7.00000,
,,,-00.000610000000,  -7.00000,
,,,-00.000609000000,  -7.00000,
,,,-00.000608000000,  -7.00000,
,,,-00.000607000000,  -7.00000,
,,,-00.000606000000,  -7.00000,
,,,-00.000605000000,  -7.00000,
,,,-00.000604000000,  -6.80000,
,,,-00.000603000000,  -7.00000,
,,,-00.000602000000,  -6.80000,
,,,-00.000601000000,  -7.00000,
,,,-00.000600000000,  -6.80000,
,,,-00.000599000000,  -6.80000,
,,,-00.000598000000,  -6.80000,
,,,-00.000597000000,  -6.80000,
,,,-00.000596000000,  -6.60000,
,,,-00.000595000000,  -6.60000,
,,,-00.000594000000,  -6.60000,
,,,-00.000593000000,  -6.80000,
,,,-00.000592000000,  -6.80000,
,,,-00.000591000000,  -6.60000,
,,,-00.000590000000,  -6.60000,
,,,-00.000589000000,  -6.60000,
,,,-00.000588000000,  -6.60000,
,,,-00.000587000000,  -6.60000,
,,,-00.000586000000,  -6.60000,
,,,-00.000585000000,  -6.60000,
,,,-00.000584000000,  -6.60000,
,,,-00.000583000000,  -6.60000,
,,,-00.000582000000,  -6.40000,
,,,-00.000581000000,  -6.60000,
,,,-00.000580000000,  -6.40000,
,,,-00.000579000000,  -6.40000,
,,,-00.000578000000,  -6.40000,
,,,-00.000577000000,  -6.40000,
,,,-00.000576000000,  -6.60000,
,,,-00.000575000000,  -6.20000,
,,,-00.000574000000,  -6.40000,
,,,-00.000573000000,  -6.20000,
,,,-00.000572000000,  -6.20000,
,,,-00.000571000000,  -6.20000,
,,,-00.000570000000,  -6.20000,
,,,-00.000569000000,  -6.20000,
,,,-00.000568000000,  -6.00000,
,,,-00.000567000000,  -6.20000,
,,,-00.000566000000,  -6.00000,
,,,-00.000565000000,  -6.20000,
,,,-00.000564000000,  -6.20000,
,,,-00.000563000000,  -7.20000,
,,,-00.000562000000,  -7.40000,
,,,-00.000561000000,  -7.00000,
,,,-00.000560000000,  -7.00000,
,,,-00.000559000000,  -7.20000,
,,,-00.000558000000,  -7.00000,
,,,-00.000557000000,  -7.00000,
,,,-00.000556000000,  -7.00000,
,,,-00.000555000000,  -7.00000,
,,,-00.000554000000,  -6.80000,
,,,-00.000553000000,  -7.00000,
,,,-00.000552000000,  -6.80000,
,,,-00.000551000000,  -6.80000,
,,,-00.000550000000,  -6.80000,
,,,-00.000549000000,  -6.80000,
,,,-00.000548000000,  -6.80000,
,,,-00.000547000000,  -6.80000,
,,,-00.000546000000,  -6.60000,
,,,-00.000545000000,  -6.80000,
,,,-00.000544000000,  -6.60000,
,,,-00.000543000000,  -6.60000,
,,,-00.000542000000,  -6.80000,
,,,-00.000541000000,  -6.60000,
,,,-00.000540000000,  -6.80000,
,,,-00.000539000000,  -6.60000,
,,,-00.000538000000,  -6.60000,
,,,-00.000537000000,  -6.60000,
,,,-00.000536000000,  -6.60000,
,,,-00.000535000000,  -6.60000,
,,,-00.000534000000,  -6.60000,
,,,-00.000533000000,  -6.60000,
,,,-00.000532000000,  -6.60000,
,,,-00.000531000000,  -6.60000,
,,,-00.000530000000,  -6.60000,
,,,-00.000529000000,  -6.40000,
,,,-00.000528000000,  -6.60000,
,,,-00.000527000000,  -6.60000,
,,,-00.000526000000,  -6.40000,
,,,-00.000525000000,  -6.40000,
,,,-00.000524000000,  -6.20000,
,,,-00.000523000000,  -6.40000,
,,,-00.000522000000,  -6.40000,
,,,-00.000521000000,  -6.40000,
,,,-00.000520000000,  -6.40000,
,,,-00.000519000000,  -6.20000,
,,,-00.000518000000,  -6.40000,
,,,-00.000517000000,  -6.20000,
,,,-00.000516000000,  -6.00000,
,,,-00.000515000000,  -6.20000,
,,,-00.000514000000,  -6.20000,
,,,-00.000513000000,  -6.00000,
,,,-00.000512000000,  -6.00000,
,,,-00.000511000000,  -7.40000,
,,,-00.000510000000,  -7.20000,
,,,-00.000509000000,  -7.20000,
,,,-00.000508000000,  -7.00000,
,,,-00.000507000000,  -7.00000,
,,,-00.000506000000,  -7.20000,
,,,-00.000505000000,  -7.00000,
,,,-00.000504000000,  -7.00000,
,,,-00.000503000000,  -7.00000,
,,,-00.000502000000,  -7.20000,
,,,-00.000501000000,  -6.80000,
,,,-00.000500000000,  -6.80000,
,,,-00.000499000000,  -7.00000,
,,,-00.000498000000,  -6.80000,
,,,-00.000497000000,  -7.00000,
,,,-00.000496000000,  -7.00000,
,,,-00.000495000000,  -6.80000,
,,,-00.000494000000,  -6.80000,
,,,-00.000493000000,  -6.80000,
,,,-00.000492000000,  -6.80000,
,,,-00.000491000000,  -6.80000,
,,,-00.000490000000,  -6.60000,
,,,-00.000489000000,  -6.60000,
,,,-00.000488000000,  -6.60000,
,,,-00.000487000000,  -6.60000,
,,,-00.000486000000,  -6.60000,
,,,-00.000485000000,  -6.60000,
,,,-00.000484000000,  -6.60000,
,,,-00.000483000000,  -6.60000,
,,,-00.000482000000,  -6.60000,
,,,-00.000481000000,  -6.40000,
,,,-00.000480000000,  -6.60000,
,,,-00.000479000000,  -6.60000,
,,,-00.000478000000,  -6.60000,
,,,-00.000477000000,  -6.60000,
,,,-00.000476000000,  -6.60000,
,,,-00.000475000000,  -6.60000,
,,,-00.000474000000,  -6.40000,
,,,-00.000473000000,  -6.60000,
,,,-00.000472000000,  -6.40000,
,,,-00.000471000000,  -6.40000,
,,,-00.000470000000,  -6.40000,
,,,-00.000469000000,  -6.40000,
,,,-00.000468000000,  -6.20000,
,,,-00.000467000000,  -6.20000,
,,,-00.000466000000,  -6.20000,
,,,-00.000465000000,  -6.20000,
,,,-00.000464000000,  -6.20000,
,,,-00.000463000000,  -6.00000,
,,,-00.000462000000,  -6.20000,
,,,-00.000461000000,  -6.20000,
,,,-00.000460000000,  -6.20000,
,,,-00.000459000000,  -6.60000,
,,,-00.000458000000,  -7.20000,
,,,-00.000457000000,  -7.00000,
,,,-00.000456000000,  -7.00000,
,,,-00.000455000000,  -7.20000,
,,,-00.000454000000,  -7.20000,
,,,-00.000453000000,  -7.00000,
,,,-00.000452000000,  -7.00000,
,,,-00.000451000000,  -7.00000,
,,,-00.000450000000,  -7.00000,
,,,-00.000449000000,  -7.00000,
,,,-00.000448000000,  -7.00000,
,,,-00.000447000000,  -6.80000,
,,,-00.000446000000,  -6.80000,
,,,-00.000445000000,  -7.00000,
,,,-00.000444000000,  -6.80000,
,,,-00.000443000000,  -7.00000,
,,,-00.000442000000,  -6.80000,
,,,-00.000441000000,  -6.80000,
,,,-00.000440000000,  -6.80000,
,,,-00.000439000000,  -6.80000,
,,,-00.000438000000,  -6.80000,
,,,-00.000437000000,  -6.60000,
,,,-00.000436000000,  -6.80000,
,,,-00.000435000000,  -6.60000,
,,,-00.000434000000,  -6.80000,
,,,-00.000433000000,  -6.60000,
,,,-00.000432000000,  -6.60000,
,,,-00.000431000000,  -6.60000,
,,,-00.000430000000,  -6.60000,
,,,-00.000429000000,  -6.60000,
,,,-00.000428000000,  -6.40000,
,,,-00.000427000000,  -6.60000,
,,,-00.000426000000,  -6.60000,
,,,-00.000425000000,  -6.60000,
,,,-00.000424000000,  -6.60000,
,,,-00.000423000000,  -6.40000,
,,,-00.000422000000,  -6.40000,
,,,-00.000421000000,  -6.40000,
,,,-00.000420000000,  -6.20000,
,,,-00.000419000000,  -6.40000,
,,,-00.000418000000,  -6.20000,
,,,-00.000417000000,  -6.40000,
,,,-00.000416000000,  -6.20000,
,,,-00.000415000000,  -6.20000,
,,,-00.000414000000,  -6.20000,
,,,-00.000413000000,  -6.20000,
,,,-00.000412000000,  -6.20000,
,,,-00.000411000000,  -6.40000,
,,,-00.000410000000,  -6.20000,
,,,-00.000409000000,  -6.20000,
,,,-00.000408000000,  -6.00000,
,,,-00.000407000000,  -6.20000,
,,,-00.000406000000,  -7.00000,
,,,-00.000405000000,  -7.40000,
,,,-00.000404000000,  -7.00000,
,,,-00.000403000000,  -7.20000,
,,,-00.000402000000,  -7.20000,
,,,-00.000401000000,  -7.20000,
,,,-00.000400000000,  -7.00000,
,,,-00.000399000000,  -7.00000,
,,,-00.000398000000,  -7.00000,
,,,-00.000397000000,  -6.80000,
,,,-00.000396000000,  -7.00000,
,,,-00.000395000000,  -7.00000,
,,,-00.000394000000,  -7.00000,
,,,-00.000393000000,  -7.00000,
,,,-00.000392000000,  -6.80000,
,,,-00.000391000000,  -6.80000,
,,,-00.000390000000,  -6.80000,
,,,-00.000389000000,  -6.80000,
,,,-00.000388000000,  -6.60000,
,,,-00.000387000000,  -6.80000,
,,,-00.000386000000,  -6.80000,
,,,-00.000385000000,  -6.60000,
,,,-00.000384000000,  -6.60000,
,,,-00.000383000000,  -6.60000,
,,,-00.000382000000,  -6.60000,
,,,-00.000381000000,  -6.60000,
,,,-00.000380000000,  -6.60000,
,,,-00.000379000000,  -6.60000,
,,,-00.000378000000,  -6.60000,
,,,-00.000377000000,  -6.60000,
,,,-00.000376000000,  -6.60000,
,,,-00.000375000000,  -6.40000,
,,,-00.000374000000,  -6.60000,
,,,-00.000373000000,  -6.60000,
,,,-00.000372000000,  -6.40000,
,,,-00.000371000000,  -6.60000,
,,,-00.000370000000,  -6.60000,
,,,-00.000369000000,  -6.40000,
,,,-00.000368000000,  -6.40000,
,,,-00.000367000000,  -6.40000,
,,,-00.000366000000,  -6.60000,
,,,-00.000365000000,  -6.40000,
,,,-00.000364000000,  -6.40000,
,,,-00.000363000000,  -6.40000,
,,,-00.000362000000,  -6.40000,
,,,-00.000361000000,  -6.20000,
,,,-00.000360000000,  -6.20000,
,,,-00.000359000000,  -6.40000,
,,,-00.000358000000,  -6.20000,
,,,-00.000357000000,  -6.20000,
,,,-00.000356000000,  -6.20000,
,,,-00.000355000000,  -6.00000,
,,,-00.000354000000,  -6.00000,
,,,-00.000353000000,  -7.40000,
,,,-00.000352000000,  -7.20000,
,,,-00.000351000000,  -7.20000,
,,,-00.000350000000,  -7.20000,
,,,-00.000349000000,  -7.00000,
,,,-00.000348000000,  -7.20000,
,,,-00.000347000000,  -7.20000,
,,,-00.000346000000,  -7.00000,
,,,-00.000345000000,  -7.00000,
,,,-00.000344000000,  -7.00000,
,,,-00.000343000000,  -6.80000,
,,,-00.000342000000,  -7.00000,
,,,-00.000341000000,  -6.80000,
,,,-00.000340000000,  -7.00000,
,,,-00.000339000000,  -7.00000,
,,,-00.000338000000,  -6.80000,
,,,-00.000337000000,  -7.00000,
,,,-00.000336000000,  -7.00000,
,,,-00.000335000000,  -6.80000,
,,,-00.000334000000,  -6.80000,
,,,-00.000333000000,  -6.60000,
,,,-00.000332000000,  -6.80000,
,,,-00.000331000000,  -6.60000,
,,,-00.000330000000,  -6.80000,
,,,-00.000329000000,  -6.60000,
,,,-00.000328000000,  -6.60000,
,,,-00.000327000000,  -6.60000,
,,,-00.000326000000,   4.40000,
,,,-00.000325000000,   4.80000,
,,,-00.000324000000,   4.80000,
,,,-00.000323000000,   4.80000,
,,,-00.000322000000,   4.80000,
,,,-00.000321000000,   4.80000,
,,,-00.000320000000,   5.00000,
,,,-00.000319000000,   4.80000,
,,,-00.000318000000,   4.80000,
,,,-00.000317000000,   4.80000,
,,,-00.000316000000,   4.80000,
,,,-00.000315000000,   4.80000,
,,,-00.000314000000,   4.80000,
,,,-00.000313000000,   4.80000,
,,,-00.000312000000,   5.00000,
,,,-00.000311000000,   4.80000,
,,,-00.000310000000,   5.00000,
,,,-00.000309000000,   4.80000,
,,,-00.000308000000,   5.00000,
,,,-00.000307000000,   4.80000,
,,,-00.000306000000,   5.00000,
,,,-00.000305000000,   4.80000,
,,,-00.000304000000,   5.00000,
,,,-00.000303000000,   5.00000,
,,,-00.000302000000,   4.80000,
,,,-00.000301000000,   4.80000,
,,,-00.000300000000,   4.80000,
,,,-00.000299000000,   5.00000,
,,,-00.000298000000,   5.40000,
,,,-00.000297000000,   5.40000,
,,,-00.000296000000,   5.40000,
,,,-00.000295000000,   5.40000,
,,,-00.000294000000,   5.40000,
,,,-00.000293000000,   5.60000,
,,,-00.000292000000,   5.40000,
,,,-00.000291000000,   5.40000,
,,,-00.000290000000,   5.60000,
,,,-00.000289000000,   5.40000,
,,,-00.000288000000,   5.40000,
,,,-00.000287000000,   5.40000,
,,,-00.000286000000,   5.40000,
,,,-00.000285000000,   5.60000,
,,,-00.000284000000,   5.20000,
,,,-00.000283000000,   5.40000,
,,,-00.000282000000,   5.40000,
,,,-00.000281000000,   5.20000,
,,,-00.000280000000,   5.40000,
,,,-00.000279000000,   5.40000,
,,,-00.000278000000,   5.40000,
,,,-00.000277000000,   5.40000,
,,,-00.000276000000,   5.40000,
,,,-00.000275000000,   5.20000,
,,,-00.000274000000,   5.20000,
,,,-00.000273000000,   5.40000,
,,,-00.000272000000,   5.20000,
,,,-00.000271000000,   5.20000,
,,,-00.000270000000,   5.40000,
,,,-00.000269000000,   5.20000,
,,,-00.000268000000,   5.40000,
,,,-00.000267000000,   5.20000,
,,,-00.000266000000,   5.20000,
,,,-00.000265000000,   5.40000,
,,,-00.000264000000,   5.20000,
,,,-00.000263000000,   5.20000,
,,,-00.000262000000,   5.20000,
,,,-00.000261000000,   5.20000,
,,,-00.000260000000,   5.20000,
,,,-00.000259000000,   5.40000,
,,,-00.000258000000,   5.40000,
,,,-00.000257000000,   5.40000,
,,,-00.000256000000,   5.20000,
,,,-00.000255000000,   5.20000,
,,,-00.000254000000,   5.20000,
,,,-00.000253000000,   5.40000,
,,,-00.000252000000,   5.20000,
,,,-00.000251000000,   5.20000,
,,,-00.000250000000,   5.20000,
,,,-00.000249000000,   5.80000,
,,,-00.000248000000,   5.80000,
,,,-00.000247000000,   6.00000,
,,,-00.000246000000,   5.80000,
,,,-00.000245000000,   5.80000,
,,,-00.000244000000,   5.80000,
,,,-00.000243000000,   6.00000,
,,,-00.000242000000,   5.80000,
,,,-00.000241000000,   5.80000,
,,,-00.000240000000,   5.80000,
,,,-00.000239000000,   5.60000,
,,,-00.000238000000,   5.80000,
,,,-00.000237000000,   5.80000,
,,,-00.000236000000,   5.80000,
,,,-00.000235000000,   5.80000,
,,,-00.000234000000,   5.60000,
,,,-00.000233000000,   5.80000,
,,,-00.000232000000,   5.60000,
,,,-00.000231000000,   5.80000,
,,,-00.000230000000,   5.80000,
,,,-00.000229000000,   5.80000,
,,,-00.000228000000,   5.60000,
,,,-00.000227000000,   5.80000,
,,,-00.000226000000,   5.60000,
,,,-00.000225000000,   5.80000,
,,,-00.000224000000,   5.80000,
,,,-00.000223000000,   5.80000,
,,,-00.000222000000,   5.80000,
,,,-00.000221000000,   5.60000,
,,,-00.000220000000,   5.60000,
,,,-00.000219000000,   5.60000,
,,,-00.000218000000,   5.60000,
,,,-00.000217000000,   5.60000,
,,,-00.000216000000,   5.60000,
,,,-00.000215000000,   5.60000,
,,,-00.000214000000,   5.60000,
,,,-00.000213000000,   5.60000,
,,,-00.000212000000,   5.40000,
,,,-00.000211000000,   5.40000,
,,,-00.000210000000,   5.40000,
,,,-00.000209000000,   5.60000,
,,,-00.000208000000,   5.40000,
,,,-00.000207000000,   5.60000,
,,,-00.000206000000,   5.60000,
,,,-00.000205000000,   5.40000,
,,,-00.000204000000,   5.60000,
,,,-00.000203000000,   5.40000,
,,,-00.000202000000,   5.40000,
,,,-00.000201000000,   5.60000,
,,,-00.000200000000,   5.60000,
,,,-00.000199000000,   5.40000,
,,,-00.000198000000,   5.40000,
,,,-00.000197000000,   5.40000,
,,,-00.000196000000,   5.40000,
,,,-00.000195000000,   5.40000,
,,,-00.000194000000,   5.40000,
,,,-00.000193000000,   5.20000,
